{
	"name": "Masks",
	"plugin-id": "Sprite",
	"sid": 206528694639687,
	"instanceVariables": [],
	"behaviorTypes": [
		{
			"behaviorId": "Tween",
			"name": "Tween",
			"sid": 276028259626224
		}
	],
	"effectTypes": [],
	"members": [
		"Mask_Acceso",
		"Mask_Proteccion",
		"Mask_Intimidad"
	]
}