{
	"name": "Achivements",
	"plugin-id": "Sprite",
	"sid": 442928573206507,
	"isGlobal": false,
	"instanceVariables": [],
	"behaviorTypes": [
		{
			"behaviorId": "Tween",
			"name": "Tween",
			"sid": 130651142140673
		}
	],
	"effectTypes": [],
	"animations": {
		"items": [
			{
				"frames": [
					{
						"width": 743,
						"height": 210,
						"originX": 0,
						"originY": 1,
						"originalSource": "",
						"exportFormat": "png",
						"exportQuality": 0.8,
						"imageSpriteId": 4338461,
						"collisionPoly": {
							"points": [
								0,
								0,
								0.5,
								0,
								0.9990740740740741,
								0,
								0.9990740740740741,
								0.5,
								0.9990740740740741,
								0.9966887417218543,
								0.5,
								0.9966887417218543,
								0,
								0.9966887417218543,
								0,
								0.5
							]
						},
						"useCollisionPoly": true,
						"duration": 1
					}
				],
				"sid": 453079178516875,
				"name": "Animation 1",
				"isLooping": false,
				"isPingPong": false,
				"repeatCount": 1,
				"repeatTo": 0,
				"speed": 0
			}
		],
		"subfolders": []
	}
}