{
	"name": "BG",
	"plugin-id": "Sprite",
	"sid": 675245171488101,
	"isGlobal": false,
	"instanceVariables": [],
	"behaviorTypes": [],
	"effectTypes": [],
	"animations": {
		"items": [
			{
				"frames": [
					{
						"width": 1080,
						"height": 1920,
						"originX": 0.5,
						"originY": 0.5,
						"originalSource": "",
						"exportFormat": "png",
						"exportQuality": 0.8,
						"imageSpriteId": 5243378,
						"collisionPoly": {
							"points": [
								0,
								0,
								0.5,
								0,
								0.9990740740740741,
								0,
								0.9990740740740741,
								0.5,
								0.9990740740740741,
								0.9994791666666667,
								0.5,
								0.9994791666666667,
								0,
								0.9994791666666667,
								0,
								0.5
							]
						},
						"useCollisionPoly": true,
						"duration": 1
					}
				],
				"sid": 765114463441847,
				"name": "Animation 1",
				"isLooping": false,
				"isPingPong": false,
				"repeatCount": 1,
				"repeatTo": 0,
				"speed": 0
			},
			{
				"frames": [
					{
						"width": 1083,
						"height": 3832,
						"originX": 0.5,
						"originY": 0.5015657620041754,
						"originalSource": "",
						"exportFormat": "png",
						"exportQuality": 0.8,
						"imageSpriteId": 8149500,
						"collisionPoly": {
							"points": [
								0.0009233610341643582,
								0.00026096033402922753,
								0.5,
								0.00026096033402922753,
								0.9981532779316713,
								0.00026096033402922753,
								0.9981532779316713,
								0.5015657620041754,
								0.9981532779316713,
								1,
								0.5,
								1,
								0.0009233610341643582,
								1,
								0.0009233610341643582,
								0.5015657620041754
							]
						},
						"useCollisionPoly": true,
						"duration": 1
					}
				],
				"sid": 799196110351513,
				"name": "Animation 2",
				"isLooping": false,
				"isPingPong": false,
				"repeatCount": 1,
				"repeatTo": 0,
				"speed": 5
			},
			{
				"frames": [
					{
						"width": 1061,
						"height": 3837,
						"originX": 0.5,
						"originY": 0.5006515506906437,
						"originalSource": "",
						"exportFormat": "png",
						"exportQuality": 0.8,
						"imageSpriteId": 7653802,
						"collisionPoly": {
							"points": [
								0.000942507068803016,
								0.00026062027625749283,
								0.5,
								0.00026062027625749283,
								0.998114985862394,
								0.00026062027625749283,
								0.998114985862394,
								0.5006515506906437,
								0.9934024505183789,
								0.999478759447485,
								0.5,
								0.999478759447485,
								0.005655042412818096,
								0.999478759447485,
								0.000942507068803016,
								0.5006515506906437
							]
						},
						"useCollisionPoly": true,
						"duration": 1
					}
				],
				"sid": 134436676514579,
				"name": "Animation 3",
				"isLooping": false,
				"isPingPong": false,
				"repeatCount": 1,
				"repeatTo": 0,
				"speed": 5
			}
		],
		"subfolders": []
	}
}