{
	"name": "Drag",
	"plugin-id": "Sprite",
	"sid": 142397322342106,
	"isGlobal": false,
	"instanceVariables": [
		{
			"name": "origin_x",
			"type": "number",
			"desc": "",
			"sid": 426091550032641
		},
		{
			"name": "origin_y",
			"type": "number",
			"desc": "",
			"sid": 308984656568608
		},
		{
			"name": "pullFrom_x",
			"type": "number",
			"desc": "",
			"sid": 452713817963762
		},
		{
			"name": "pullFrom_y",
			"type": "number",
			"desc": "",
			"sid": 245674173131801
		}
	],
	"behaviorTypes": [
		{
			"behaviorId": "DragnDrop",
			"name": "DragDrop",
			"sid": 943486651770962
		}
	],
	"effectTypes": [],
	"animations": {
		"items": [
			{
				"frames": [
					{
						"width": 750,
						"height": 794,
						"originX": 0.5,
						"originY": 0.5,
						"originalSource": "",
						"exportFormat": "png",
						"exportQuality": 0.8,
						"imageSpriteId": 8179271,
						"collisionPoly": {
							"points": [
								0.006666666666666667,
								0.006297229219143577,
								0.5,
								0,
								0.992,
								0.006297229219143577,
								0.9986666666666667,
								0.5,
								0.992,
								0.9924433249370277,
								0.5,
								0.9987405541561712,
								0.006666666666666667,
								0.9924433249370277,
								0,
								0.5
							]
						},
						"useCollisionPoly": true,
						"imagePoints": [
							{
								"name": "Image Point 1",
								"x": 0,
								"y": 0
							}
						],
						"duration": 1
					}
				],
				"sid": 871340594598440,
				"name": "Animation 1",
				"isLooping": false,
				"isPingPong": false,
				"repeatCount": 1,
				"repeatTo": 0,
				"speed": 5
			}
		],
		"subfolders": []
	}
}