{
	"name": "EndGame",
	"plugin-id": "Sprite",
	"sid": 908488793869898,
	"isGlobal": false,
	"instanceVariables": [],
	"behaviorTypes": [
		{
			"behaviorId": "Tween",
			"name": "Tween",
			"sid": 517897806975188
		}
	],
	"effectTypes": [],
	"animations": {
		"items": [
			{
				"frames": [
					{
						"width": 834,
						"height": 724,
						"originX": 0.5,
						"originY": 0.5,
						"originalSource": "",
						"exportFormat": "png",
						"exportQuality": 0.8,
						"imageSpriteId": 1824619,
						"collisionPoly": {
							"points": [
								0.29133858267716556,
								0.7396907216494846,
								0.4619422572178482,
								0.7345360824742262,
								0.4671916010498696,
								0.9123711340206188,
								0.2860892388451447,
								0.9123711340206189
							]
						},
						"useCollisionPoly": true,
						"duration": 1
					},
					{
						"width": 834,
						"height": 723,
						"originX": 0.5,
						"originY": 0.5,
						"originalSource": "",
						"exportFormat": "png",
						"exportQuality": 0.8,
						"imageSpriteId": 742261,
						"collisionPoly": {
							"points": [
								0.014435695538057743,
								0.014175257731958763,
								0.5,
								0,
								0.984251968503937,
								0.014175257731958763,
								0.9986876640419947,
								0.5,
								0.984251968503937,
								0.9845360824742269,
								0.5,
								0.9987113402061856,
								0.014435695538057743,
								0.9845360824742269,
								0,
								0.5
							]
						},
						"useCollisionPoly": true,
						"duration": 1
					}
				],
				"sid": 994997479233514,
				"name": "OldCard",
				"isLooping": false,
				"isPingPong": false,
				"repeatCount": 1,
				"repeatTo": 0,
				"speed": 0
			}
		],
		"subfolders": []
	}
}