{
	"name": "FraseEndGame",
	"plugin-id": "Text",
	"sid": 168540459129400,
	"isGlobal": false,
	"instanceVariables": [],
	"behaviorTypes": [
		{
			"behaviorId": "Pin",
			"name": "Pin",
			"sid": 116635132289003
		}
	],
	"effectTypes": []
}