{
	"name": "IndicadorProteccionGlitch",
	"plugin-id": "Sprite",
	"sid": 216078554060757,
	"isGlobal": false,
	"instanceVariables": [],
	"behaviorTypes": [],
	"effectTypes": [],
	"animations": {
		"items": [
			{
				"frames": [
					{
						"width": 146,
						"height": 141,
						"originX": 0.5,
						"originY": 1,
						"originalSource": "",
						"exportFormat": "png",
						"exportQuality": 0.8,
						"imageSpriteId": 3036071,
						"collisionPoly": {
							"points": [
								0.136986301369863,
								0.14184397163120568,
								0.5,
								0,
								0.8561643835616438,
								0.14184397163120568,
								0.9863013698630136,
								0.5,
								0.8493150684931506,
								0.8439716312056738,
								0.5,
								0.9929078014184397,
								0.14383561643835616,
								0.8439716312056738,
								0,
								0.5
							]
						},
						"useCollisionPoly": true,
						"duration": 1
					},
					{
						"width": 163,
						"height": 141,
						"originX": 0.5,
						"originY": 1,
						"originalSource": "",
						"exportFormat": "png",
						"exportQuality": 0.8,
						"imageSpriteId": 3535044,
						"collisionPoly": {
							"points": [
								0.15337423312883436,
								0.1773049645390071,
								0.5,
								0,
								0.8773006134969326,
								0.1347517730496454,
								0.9570552147239264,
								0.5,
								0.8159509202453987,
								0.7872340425531915,
								0.5,
								0.9858156028368794,
								0.09815950920245399,
								0.8794326241134752,
								0.04294478527607362,
								0.5
							]
						},
						"useCollisionPoly": true,
						"duration": 1
					},
					{
						"width": 184,
						"height": 141,
						"originX": 0.5,
						"originY": 1,
						"originalSource": "",
						"exportFormat": "png",
						"exportQuality": 0.8,
						"imageSpriteId": 4208495,
						"collisionPoly": {
							"points": [
								0.16304347826086957,
								0.2127659574468085,
								0.5,
								0,
								0.8913043478260869,
								0.1347517730496454,
								0.9945652173913043,
								0.5,
								0.8315217391304348,
								0.7801418439716312,
								0.5,
								0.9929078014184397,
								0.07065217391304347,
								0.900709219858156,
								0.043478260869565216,
								0.5
							]
						},
						"useCollisionPoly": true,
						"duration": 1
					},
					{
						"width": 163,
						"height": 141,
						"originX": 0.5,
						"originY": 1,
						"originalSource": "",
						"exportFormat": "png",
						"exportQuality": 0.8,
						"imageSpriteId": 2007652,
						"collisionPoly": {
							"points": [
								0.15337423312883436,
								0.1773049645390071,
								0.5,
								0,
								0.8773006134969326,
								0.1347517730496454,
								0.9570552147239264,
								0.5,
								0.8159509202453987,
								0.7872340425531915,
								0.5,
								0.9858156028368794,
								0.09815950920245399,
								0.8794326241134752,
								0.04294478527607362,
								0.5
							]
						},
						"useCollisionPoly": true,
						"duration": 1
					},
					{
						"width": 184,
						"height": 141,
						"originX": 0.5,
						"originY": 1,
						"originalSource": "",
						"exportFormat": "png",
						"exportQuality": 0.8,
						"imageSpriteId": 1168477,
						"collisionPoly": {
							"points": [
								0.16304347826086957,
								0.2127659574468085,
								0.5,
								0,
								0.8913043478260869,
								0.1347517730496454,
								0.9945652173913043,
								0.5,
								0.8315217391304348,
								0.7801418439716312,
								0.5,
								0.9929078014184397,
								0.07065217391304347,
								0.900709219858156,
								0.043478260869565216,
								0.5
							]
						},
						"useCollisionPoly": true,
						"duration": 1
					},
					{
						"width": 163,
						"height": 141,
						"originX": 0.5,
						"originY": 1,
						"originalSource": "",
						"exportFormat": "png",
						"exportQuality": 0.8,
						"imageSpriteId": 4687182,
						"collisionPoly": {
							"points": [
								0.15337423312883436,
								0.1773049645390071,
								0.5,
								0,
								0.8773006134969326,
								0.1347517730496454,
								0.9570552147239264,
								0.5,
								0.8159509202453987,
								0.7872340425531915,
								0.5,
								0.9858156028368794,
								0.09815950920245399,
								0.8794326241134752,
								0.04294478527607362,
								0.5
							]
						},
						"useCollisionPoly": true,
						"duration": 1
					},
					{
						"width": 146,
						"height": 141,
						"originX": 0.5,
						"originY": 1,
						"originalSource": "",
						"exportFormat": "png",
						"exportQuality": 0.8,
						"imageSpriteId": 4211203,
						"collisionPoly": {
							"points": [
								0.136986301369863,
								0.14184397163120568,
								0.5,
								0,
								0.8561643835616438,
								0.14184397163120568,
								0.9863013698630136,
								0.5,
								0.8493150684931506,
								0.8439716312056738,
								0.5,
								0.9929078014184397,
								0.14383561643835616,
								0.8439716312056738,
								0,
								0.5
							]
						},
						"useCollisionPoly": true,
						"duration": 1
					},
					{
						"width": 146,
						"height": 141,
						"originX": 0.5,
						"originY": 1,
						"originalSource": "",
						"exportFormat": "png",
						"exportQuality": 0.8,
						"imageSpriteId": 8388955,
						"collisionPoly": {
							"points": [
								0.136986301369863,
								0.14184397163120568,
								0.5,
								0,
								0.8561643835616438,
								0.14184397163120568,
								0.9863013698630136,
								0.5,
								0.8493150684931506,
								0.8439716312056738,
								0.5,
								0.9929078014184397,
								0.14383561643835616,
								0.8439716312056738,
								0,
								0.5
							]
						},
						"useCollisionPoly": true,
						"duration": 1
					}
				],
				"sid": 699576577866939,
				"name": "Animation 2",
				"isLooping": false,
				"isPingPong": false,
				"repeatCount": 1,
				"repeatTo": 0,
				"speed": 20
			}
		],
		"subfolders": []
	}
}