{
	"name": "LogroCard",
	"plugin-id": "Sprite",
	"sid": 844496638756639,
	"isGlobal": false,
	"instanceVariables": [],
	"behaviorTypes": [
		{
			"behaviorId": "Pin",
			"name": "Pin",
			"sid": 436086044453895
		}
	],
	"effectTypes": [],
	"animations": {
		"items": [
			{
				"frames": [
					{
						"width": 792,
						"height": 210,
						"originX": 0.5,
						"originY": 0,
						"originalSource": "",
						"exportFormat": "png",
						"exportQuality": 0.8,
						"imageSpriteId": 3546712,
						"collisionPoly": {
							"points": [
								0.005050505050505051,
								0.01904761904761905,
								0.5,
								0,
								0.9936868686868687,
								0.01904761904761905,
								0.9987373737373737,
								0.5,
								0.9936868686868687,
								0.9761904761904762,
								0.5,
								0.9952380952380953,
								0.005050505050505051,
								0.9761904761904762,
								0,
								0.5
							]
						},
						"useCollisionPoly": true,
						"duration": 1
					}
				],
				"sid": 964635780747805,
				"name": "Animation 1",
				"isLooping": false,
				"isPingPong": false,
				"repeatCount": 1,
				"repeatTo": 0,
				"speed": 5
			}
		],
		"subfolders": []
	}
}