{
	"name": "OptionsBG",
	"plugin-id": "Sprite",
	"sid": 382272396756176,
	"isGlobal": false,
	"instanceVariables": [],
	"behaviorTypes": [
		{
			"behaviorId": "Tween",
			"name": "Tween",
			"sid": 443822780708412
		},
		{
			"behaviorId": "Pin",
			"name": "Pin",
			"sid": 537441989578656
		}
	],
	"effectTypes": [],
	"animations": {
		"items": [
			{
				"frames": [
					{
						"width": 716,
						"height": 251,
						"originX": 0.5,
						"originY": 0,
						"originalSource": "",
						"exportFormat": "png",
						"exportQuality": 0.8,
						"imageSpriteId": 4024119,
						"collisionPoly": {
							"points": [
								0.008379888268156424,
								0.02390438247011952,
								0.5,
								0,
								0.9916201117318436,
								0.0199203187250996,
								0.9986033519553073,
								0.5,
								0.9916201117318436,
								0.9760956175298805,
								0.5,
								0.9960159362549801,
								0.006983240223463687,
								0.9760956175298805,
								0.0013966480446927375,
								0.5
							]
						},
						"useCollisionPoly": true,
						"duration": 1
					}
				],
				"sid": 167387283226749,
				"name": "Animation 1",
				"isLooping": false,
				"isPingPong": false,
				"repeatCount": 1,
				"repeatTo": 0,
				"speed": 5
			}
		],
		"subfolders": []
	}
}