{
	"name": "optmen_bttnx_idle",
	"plugin-id": "Sprite",
	"sid": 240911230539587,
	"isGlobal": false,
	"instanceVariables": [
		{
			"name": "linkedMenu",
			"type": "string",
			"desc": "",
			"sid": 972168822615598
		}
	],
	"behaviorTypes": [],
	"effectTypes": [],
	"animations": {
		"items": [
			{
				"frames": [
					{
						"width": 139,
						"height": 139,
						"originX": 0.5,
						"originY": 0.5,
						"originalSource": "",
						"exportFormat": "png",
						"exportQuality": 0.8,
						"imageSpriteId": 7207592,
						"useCollisionPoly": true,
						"duration": 1
					},
					{
						"width": 138,
						"height": 138,
						"originX": 0.5,
						"originY": 0.5,
						"originalSource": "",
						"exportFormat": "png",
						"exportQuality": 0.8,
						"imageSpriteId": 4524781,
						"useCollisionPoly": true,
						"duration": 1
					}
				],
				"sid": 291089638487833,
				"name": "Default",
				"isLooping": false,
				"isPingPong": false,
				"repeatCount": 1,
				"repeatTo": 0,
				"speed": 5
			}
		],
		"subfolders": []
	}
}