{
	"name": "PlusPart",
	"plugin-id": "Particles",
	"sid": 345740849218692,
	"isGlobal": false,
	"instanceVariables": [
		{
			"name": "StatID",
			"type": "number",
			"desc": "",
			"sid": 253236030646959
		}
	],
	"behaviorTypes": [],
	"effectTypes": [],
	"image": {
		"width": 292,
		"height": 290,
		"originX": 0.5,
		"originY": 0.5,
		"originalSource": "",
		"exportFormat": "png",
		"exportQuality": 0.8,
		"imageSpriteId": 4775804,
		"useCollisionPoly": true
	}
}