{
	"name": "ResumenEndGameStat1",
	"plugin-id": "Text",
	"sid": 704765602642458,
	"isGlobal": false,
	"instanceVariables": [],
	"behaviorTypes": [
		{
			"behaviorId": "Pin",
			"name": "Pin",
			"sid": 942479385655552
		}
	],
	"effectTypes": []
}