{
	"name": "SplashAnim",
	"plugin-id": "Sprite",
	"sid": 735074359111882,
	"isGlobal": false,
	"instanceVariables": [],
	"behaviorTypes": [],
	"effectTypes": [],
	"animations": {
		"items": [
			{
				"frames": [
					{
						"width": 1365,
						"height": 256,
						"originX": 0.5,
						"originY": 0,
						"originalSource": "",
						"exportFormat": "png",
						"exportQuality": 0.8,
						"imageSpriteId": 997231,
						"collisionPoly": {
							"points": [
								0,
								0,
								0.5,
								0,
								0.9981481481481481,
								0,
								0.9981481481481481,
								0.5,
								0.9981481481481481,
								0.9962546816479401,
								0.5,
								0.9962546816479401,
								0,
								0.9962546816479401,
								0,
								0.5
							]
						},
						"useCollisionPoly": true,
						"duration": 1
					},
					{
						"width": 1365,
						"height": 256,
						"originX": 0.5,
						"originY": 0,
						"originalSource": "",
						"exportFormat": "png",
						"exportQuality": 0.8,
						"imageSpriteId": 2789829,
						"collisionPoly": {
							"points": [
								0,
								0,
								0.5,
								0,
								0.9995833333333334,
								0,
								0.9995833333333334,
								0.5,
								0.9995833333333334,
								0.9977777777777778,
								0.5,
								0.9977777777777778,
								0,
								0.9977777777777778,
								0,
								0.5
							]
						},
						"useCollisionPoly": true,
						"duration": 1
					},
					{
						"width": 1365,
						"height": 256,
						"originX": 0.5,
						"originY": 0,
						"originalSource": "",
						"exportFormat": "png",
						"exportQuality": 0.8,
						"imageSpriteId": 3276000,
						"collisionPoly": {
							"points": [
								0,
								0,
								0.5,
								0,
								0.9995833333333334,
								0,
								0.9995833333333334,
								0.5,
								0.9995833333333334,
								0.9977777777777778,
								0.5,
								0.9977777777777778,
								0,
								0.9977777777777778,
								0,
								0.5
							]
						},
						"useCollisionPoly": true,
						"duration": 1
					},
					{
						"width": 1365,
						"height": 256,
						"originX": 0.5,
						"originY": 0,
						"originalSource": "",
						"exportFormat": "png",
						"exportQuality": 0.8,
						"imageSpriteId": 402072,
						"collisionPoly": {
							"points": [
								0,
								0,
								0.5,
								0,
								0.9995833333333334,
								0,
								0.9995833333333334,
								0.5,
								0.9995833333333334,
								0.9977777777777778,
								0.5,
								0.9977777777777778,
								0,
								0.9977777777777778,
								0,
								0.5
							]
						},
						"useCollisionPoly": true,
						"duration": 1
					},
					{
						"width": 1365,
						"height": 256,
						"originX": 0.5,
						"originY": 0,
						"originalSource": "",
						"exportFormat": "png",
						"exportQuality": 0.8,
						"imageSpriteId": 5875243,
						"collisionPoly": {
							"points": [
								0,
								0,
								0.5,
								0,
								0.9995833333333334,
								0,
								0.9995833333333334,
								0.5,
								0.9995833333333334,
								0.9977777777777778,
								0.5,
								0.9977777777777778,
								0,
								0.9977777777777778,
								0,
								0.5
							]
						},
						"useCollisionPoly": true,
						"duration": 1
					},
					{
						"width": 1365,
						"height": 256,
						"originX": 0.5,
						"originY": 0,
						"originalSource": "",
						"exportFormat": "png",
						"exportQuality": 0.8,
						"imageSpriteId": 1530123,
						"collisionPoly": {
							"points": [
								0,
								0,
								0.5,
								0,
								0.9995833333333334,
								0,
								0.9995833333333334,
								0.5,
								0.9995833333333334,
								0.9977777777777778,
								0.5,
								0.9977777777777778,
								0,
								0.9977777777777778,
								0,
								0.5
							]
						},
						"useCollisionPoly": true,
						"duration": 1
					},
					{
						"width": 1365,
						"height": 256,
						"originX": 0.5,
						"originY": 0,
						"originalSource": "",
						"exportFormat": "png",
						"exportQuality": 0.8,
						"imageSpriteId": 3544954,
						"collisionPoly": {
							"points": [
								0,
								0,
								0.5,
								0,
								0.9995833333333334,
								0,
								0.9995833333333334,
								0.5,
								0.9995833333333334,
								0.9977777777777778,
								0.5,
								0.9977777777777778,
								0,
								0.9977777777777778,
								0,
								0.5
							]
						},
						"useCollisionPoly": true,
						"duration": 1
					},
					{
						"width": 1365,
						"height": 256,
						"originX": 0.5,
						"originY": 0,
						"originalSource": "",
						"exportFormat": "png",
						"exportQuality": 0.8,
						"imageSpriteId": 1563373,
						"collisionPoly": {
							"points": [
								0,
								0,
								0.5,
								0,
								0.9995833333333334,
								0,
								0.9995833333333334,
								0.5,
								0.9995833333333334,
								0.9977777777777778,
								0.5,
								0.9977777777777778,
								0,
								0.9977777777777778,
								0,
								0.5
							]
						},
						"useCollisionPoly": true,
						"duration": 1
					},
					{
						"width": 1365,
						"height": 256,
						"originX": 0.5,
						"originY": 0,
						"originalSource": "",
						"exportFormat": "png",
						"exportQuality": 0.8,
						"imageSpriteId": 9190885,
						"collisionPoly": {
							"points": [
								0,
								0,
								0.5,
								0,
								0.9995833333333334,
								0,
								0.9995833333333334,
								0.5,
								0.9995833333333334,
								0.9977777777777778,
								0.5,
								0.9977777777777778,
								0,
								0.9977777777777778,
								0,
								0.5
							]
						},
						"useCollisionPoly": true,
						"duration": 1
					},
					{
						"width": 1365,
						"height": 256,
						"originX": 0.5,
						"originY": 0,
						"originalSource": "",
						"exportFormat": "png",
						"exportQuality": 0.8,
						"imageSpriteId": 7065555,
						"collisionPoly": {
							"points": [
								0,
								0,
								0.5,
								0,
								0.9995833333333334,
								0,
								0.9995833333333334,
								0.5,
								0.9995833333333334,
								0.9977777777777778,
								0.5,
								0.9977777777777778,
								0,
								0.9977777777777778,
								0,
								0.5
							]
						},
						"useCollisionPoly": true,
						"duration": 1
					},
					{
						"width": 1365,
						"height": 256,
						"originX": 0.5,
						"originY": 0,
						"originalSource": "",
						"exportFormat": "png",
						"exportQuality": 0.8,
						"imageSpriteId": 3765575,
						"collisionPoly": {
							"points": [
								0,
								0,
								0.5,
								0,
								0.9995833333333334,
								0,
								0.9995833333333334,
								0.5,
								0.9995833333333334,
								0.9977777777777778,
								0.5,
								0.9977777777777778,
								0,
								0.9977777777777778,
								0,
								0.5
							]
						},
						"useCollisionPoly": true,
						"duration": 1
					},
					{
						"width": 1365,
						"height": 256,
						"originX": 0.5,
						"originY": 0,
						"originalSource": "",
						"exportFormat": "png",
						"exportQuality": 0.8,
						"imageSpriteId": 9937507,
						"collisionPoly": {
							"points": [
								0,
								0,
								0.5,
								0,
								0.9995833333333334,
								0,
								0.9995833333333334,
								0.5,
								0.9995833333333334,
								0.9977777777777778,
								0.5,
								0.9977777777777778,
								0,
								0.9977777777777778,
								0,
								0.5
							]
						},
						"useCollisionPoly": true,
						"duration": 1
					},
					{
						"width": 1365,
						"height": 256,
						"originX": 0.5,
						"originY": 0,
						"originalSource": "",
						"exportFormat": "png",
						"exportQuality": 0.8,
						"imageSpriteId": 9141554,
						"collisionPoly": {
							"points": [
								0,
								0,
								0.5,
								0,
								0.9995833333333334,
								0,
								0.9995833333333334,
								0.5,
								0.9995833333333334,
								0.9977777777777778,
								0.5,
								0.9977777777777778,
								0,
								0.9977777777777778,
								0,
								0.5
							]
						},
						"useCollisionPoly": true,
						"duration": 1
					},
					{
						"width": 1365,
						"height": 256,
						"originX": 0.5,
						"originY": 0,
						"originalSource": "",
						"exportFormat": "png",
						"exportQuality": 0.8,
						"imageSpriteId": 8440614,
						"collisionPoly": {
							"points": [
								0,
								0,
								0.5,
								0,
								0.9995833333333334,
								0,
								0.9995833333333334,
								0.5,
								0.9995833333333334,
								0.9977777777777778,
								0.5,
								0.9977777777777778,
								0,
								0.9977777777777778,
								0,
								0.5
							]
						},
						"useCollisionPoly": true,
						"duration": 1
					},
					{
						"width": 1365,
						"height": 256,
						"originX": 0.5,
						"originY": 0,
						"originalSource": "",
						"exportFormat": "png",
						"exportQuality": 0.8,
						"imageSpriteId": 4075121,
						"collisionPoly": {
							"points": [
								0,
								0,
								0.5,
								0,
								0.9995833333333334,
								0,
								0.9995833333333334,
								0.5,
								0.9995833333333334,
								0.9977777777777778,
								0.5,
								0.9977777777777778,
								0,
								0.9977777777777778,
								0,
								0.5
							]
						},
						"useCollisionPoly": true,
						"duration": 1
					},
					{
						"width": 1365,
						"height": 256,
						"originX": 0.5,
						"originY": 0,
						"originalSource": "",
						"exportFormat": "png",
						"exportQuality": 0.8,
						"imageSpriteId": 7916878,
						"collisionPoly": {
							"points": [
								0,
								0,
								0.5,
								0,
								0.9995833333333334,
								0,
								0.9995833333333334,
								0.5,
								0.9995833333333334,
								0.9977777777777778,
								0.5,
								0.9977777777777778,
								0,
								0.9977777777777778,
								0,
								0.5
							]
						},
						"useCollisionPoly": true,
						"duration": 1
					},
					{
						"width": 1365,
						"height": 256,
						"originX": 0.5,
						"originY": 0,
						"originalSource": "",
						"exportFormat": "png",
						"exportQuality": 0.8,
						"imageSpriteId": 9261721,
						"collisionPoly": {
							"points": [
								0,
								0,
								0.5,
								0,
								0.9995833333333334,
								0,
								0.9995833333333334,
								0.5,
								0.9995833333333334,
								0.9977777777777778,
								0.5,
								0.9977777777777778,
								0,
								0.9977777777777778,
								0,
								0.5
							]
						},
						"useCollisionPoly": true,
						"duration": 1
					},
					{
						"width": 1365,
						"height": 256,
						"originX": 0.5,
						"originY": 0,
						"originalSource": "",
						"exportFormat": "png",
						"exportQuality": 0.8,
						"imageSpriteId": 2456566,
						"collisionPoly": {
							"points": [
								0,
								0,
								0.5,
								0,
								0.9995833333333334,
								0,
								0.9995833333333334,
								0.5,
								0.9995833333333334,
								0.9977777777777778,
								0.5,
								0.9977777777777778,
								0,
								0.9977777777777778,
								0,
								0.5
							]
						},
						"useCollisionPoly": true,
						"duration": 1
					},
					{
						"width": 1365,
						"height": 256,
						"originX": 0.5,
						"originY": 0,
						"originalSource": "",
						"exportFormat": "png",
						"exportQuality": 0.8,
						"imageSpriteId": 8091015,
						"collisionPoly": {
							"points": [
								0,
								0,
								0.5,
								0,
								0.9995833333333334,
								0,
								0.9995833333333334,
								0.5,
								0.9995833333333334,
								0.9977777777777778,
								0.5,
								0.9977777777777778,
								0,
								0.9977777777777778,
								0,
								0.5
							]
						},
						"useCollisionPoly": true,
						"duration": 1
					},
					{
						"width": 1365,
						"height": 256,
						"originX": 0.5,
						"originY": 0,
						"originalSource": "",
						"exportFormat": "png",
						"exportQuality": 0.8,
						"imageSpriteId": 1907180,
						"collisionPoly": {
							"points": [
								0,
								0,
								0.5,
								0,
								0.9995833333333334,
								0,
								0.9995833333333334,
								0.5,
								0.9995833333333334,
								0.9977777777777778,
								0.5,
								0.9977777777777778,
								0,
								0.9977777777777778,
								0,
								0.5
							]
						},
						"useCollisionPoly": true,
						"duration": 1
					},
					{
						"width": 1365,
						"height": 256,
						"originX": 0.5,
						"originY": 0,
						"originalSource": "",
						"exportFormat": "png",
						"exportQuality": 0.8,
						"imageSpriteId": 6982896,
						"collisionPoly": {
							"points": [
								0,
								0,
								0.5,
								0,
								0.9995833333333334,
								0,
								0.9995833333333334,
								0.5,
								0.9995833333333334,
								0.9977777777777778,
								0.5,
								0.9977777777777778,
								0,
								0.9977777777777778,
								0,
								0.5
							]
						},
						"useCollisionPoly": true,
						"duration": 1
					},
					{
						"width": 1365,
						"height": 256,
						"originX": 0.5,
						"originY": 0,
						"originalSource": "",
						"exportFormat": "png",
						"exportQuality": 0.8,
						"imageSpriteId": 1804890,
						"collisionPoly": {
							"points": [
								0,
								0,
								0.5,
								0,
								0.9995833333333334,
								0,
								0.9995833333333334,
								0.5,
								0.9995833333333334,
								0.9977777777777778,
								0.5,
								0.9977777777777778,
								0,
								0.9977777777777778,
								0,
								0.5
							]
						},
						"useCollisionPoly": true,
						"duration": 1
					},
					{
						"width": 1365,
						"height": 256,
						"originX": 0.5,
						"originY": 0,
						"originalSource": "",
						"exportFormat": "png",
						"exportQuality": 0.8,
						"imageSpriteId": 4397936,
						"collisionPoly": {
							"points": [
								0,
								0,
								0.5,
								0,
								0.9995833333333334,
								0,
								0.9995833333333334,
								0.5,
								0.9995833333333334,
								0.9977777777777778,
								0.5,
								0.9977777777777778,
								0,
								0.9977777777777778,
								0,
								0.5
							]
						},
						"useCollisionPoly": true,
						"duration": 1
					},
					{
						"width": 1365,
						"height": 256,
						"originX": 0.5,
						"originY": 0,
						"originalSource": "",
						"exportFormat": "png",
						"exportQuality": 0.8,
						"imageSpriteId": 7644488,
						"collisionPoly": {
							"points": [
								0,
								0,
								0.5,
								0,
								0.9995833333333334,
								0,
								0.9995833333333334,
								0.5,
								0.9995833333333334,
								0.9977777777777778,
								0.5,
								0.9977777777777778,
								0,
								0.9977777777777778,
								0,
								0.5
							]
						},
						"useCollisionPoly": true,
						"duration": 1
					},
					{
						"width": 1365,
						"height": 256,
						"originX": 0.5,
						"originY": 0,
						"originalSource": "",
						"exportFormat": "png",
						"exportQuality": 0.8,
						"imageSpriteId": 3905869,
						"collisionPoly": {
							"points": [
								0,
								0,
								0.5,
								0,
								0.9995833333333334,
								0,
								0.9995833333333334,
								0.5,
								0.9995833333333334,
								0.9977777777777778,
								0.5,
								0.9977777777777778,
								0,
								0.9977777777777778,
								0,
								0.5
							]
						},
						"useCollisionPoly": true,
						"duration": 1
					},
					{
						"width": 1365,
						"height": 256,
						"originX": 0.5,
						"originY": 0,
						"originalSource": "",
						"exportFormat": "png",
						"exportQuality": 0.8,
						"imageSpriteId": 7480447,
						"collisionPoly": {
							"points": [
								0,
								0,
								0.5,
								0,
								0.9995833333333334,
								0,
								0.9995833333333334,
								0.5,
								0.9995833333333334,
								0.9977777777777778,
								0.5,
								0.9977777777777778,
								0,
								0.9977777777777778,
								0,
								0.5
							]
						},
						"useCollisionPoly": true,
						"duration": 1
					},
					{
						"width": 1365,
						"height": 256,
						"originX": 0.5,
						"originY": 0,
						"originalSource": "",
						"exportFormat": "png",
						"exportQuality": 0.8,
						"imageSpriteId": 9427367,
						"collisionPoly": {
							"points": [
								0,
								0,
								0.5,
								0,
								0.9995833333333334,
								0,
								0.9995833333333334,
								0.5,
								0.9995833333333334,
								0.9977777777777778,
								0.5,
								0.9977777777777778,
								0,
								0.9977777777777778,
								0,
								0.5
							]
						},
						"useCollisionPoly": true,
						"duration": 1
					},
					{
						"width": 1365,
						"height": 256,
						"originX": 0.5,
						"originY": 0,
						"originalSource": "",
						"exportFormat": "png",
						"exportQuality": 0.8,
						"imageSpriteId": 5271811,
						"collisionPoly": {
							"points": [
								0,
								0,
								0.5,
								0,
								0.9995833333333334,
								0,
								0.9995833333333334,
								0.5,
								0.9995833333333334,
								0.9977777777777778,
								0.5,
								0.9977777777777778,
								0,
								0.9977777777777778,
								0,
								0.5
							]
						},
						"useCollisionPoly": true,
						"duration": 1
					},
					{
						"width": 1365,
						"height": 256,
						"originX": 0.5,
						"originY": 0,
						"originalSource": "",
						"exportFormat": "png",
						"exportQuality": 0.8,
						"imageSpriteId": 9417256,
						"collisionPoly": {
							"points": [
								0,
								0,
								0.5,
								0,
								0.9995833333333334,
								0,
								0.9995833333333334,
								0.5,
								0.9995833333333334,
								0.9977777777777778,
								0.5,
								0.9977777777777778,
								0,
								0.9977777777777778,
								0,
								0.5
							]
						},
						"useCollisionPoly": true,
						"duration": 1
					}
				],
				"sid": 505936212745507,
				"name": "Animation 1",
				"isLooping": true,
				"isPingPong": false,
				"repeatCount": 1,
				"repeatTo": 0,
				"speed": 20
			}
		],
		"subfolders": []
	}
}